%YAML 1.1
%TAG !u! tag:unity3d.com,2011:
--- !u!114 &11400000
MonoBehaviour:
  m_ObjectHideFlags: 0
  m_CorrespondingSourceObject: {fileID: 0}
  m_PrefabInstance: {fileID: 0}
  m_PrefabAsset: {fileID: 0}
  m_GameObject: {fileID: 0}
  m_Enabled: 1
  m_EditorHideFlags: 0
  m_Script: {fileID: 11500000, guid: c13c7172ae83a2f45bc915cd6dbb7ef7, type: 3}
  m_Name: TipoSomElefante
  m_EditorClassIdentifier: 
  _tipoAnimal: 3
  _audioCerto: {fileID: 8300000, guid: 840cce991077b4a4f9aab8f683d15906, type: 3}
  _audiosErrados:
  - {fileID: 8300000, guid: b02c6d357454f4b4b95b148ddfc733d4, type: 3}
  - {fileID: 8300000, guid: df017cca5d0f20f418c61010e9f0fad3, type: 3}
  - {fileID: 8300000, guid: 010c52a8e4440b84f89fe89c1fa92771, type: 3}
  - {fileID: 8300000, guid: 834ba2163efa2b240adccbf16fe413a8, type: 3}
